…
```r
filter(mpg, cyl == 8) #filter spelled wrong, = should be ==
```

```
## # A tibble: 70 x 11
##    manufacturer model displ  year   cyl trans drv     cty   hwy fl    class
##    <chr>        <chr> <dbl> <int> <int> <chr> <chr> <int> <int> <chr> <chr>
##  1 audi         a6 q~   4.2  2008     8 auto~ 4        16    23 p     mids~
##  2 chevrolet    c150~   5.3  2008     8 auto~ r        14    20 r     suv  
##  3 chevrolet    c150~   5.3  2008     8 auto~ r        11    15 e     suv  
##  4 chevrolet    c150~   5.3  2008     8 auto~ r        14    20 r     suv  
##  5 chevrolet    c150~   5.7  1999     8 auto~ r        13    17 r     suv  
##  6 chevrolet    c150~   6    2008     8 auto~ r        12    17 r     suv  
##  7 chevrolet    corv~   5.7  1999     8 manu~ r        16    26 p     2sea~
##  8 chevrolet    corv~   5.7  1999     8 auto~ r        15    23 p     2sea~
##  9 chevrolet    corv~   6.2  2008     8 manu~ r        16    26 p     2sea~
## 10 chevrolet    corv~   6.2  2008     8 auto~ r        15    25 p     2sea~
## # ... with 60 more rows
```

```r
filter(diamonds, carat > 3) #diamonds needed an s
```

```
## # A tibble: 32 x 10
##    carat cut     color clarity depth table price     x     y     z
##    <dbl> <ord>   <ord> <ord>   <dbl> <dbl> <int> <dbl> <dbl> <dbl>
##  1  3.01 Premium I     I1       62.7    58  8040  9.1   8.97  5.67
##  2  3.11 Fair    J     I1       65.9    57  9823  9.15  9.02  5.98
##  3  3.01 Premium F     I1       62.2    56  9925  9.24  9.13  5.73
##  4  3.05 Premium E     I1       60.9    58 10453  9.26  9.25  5.66
##  5  3.02 Fair    I     I1       65.2    56 10577  9.11  9.02  5.91
##  6  3.01 Fair    H     I1       56.1    62 10761  9.54  9.38  5.31
##  7  3.65 Fair    H     I1       67.1    53 11668  9.53  9.48  6.38
##  8  3.24 Premium H     I1       62.1    58 12300  9.44  9.4   5.85
##  9  3.22 Ideal   I     I1       62.6    55 12545  9.49  9.42  5.92
## 10  3.5  Ideal   H     I1       62.8    57 12587  9.65  9.59  6.03
## # ... with 22 more rows
```
…
Question 2 Another useful dplyr filtering helper is between(). What does it do? Can you use it to simplify the code needed to answer the previous challenges?

Question 3 How many flights have a missing dep_time? What other variables are missing? What might these rows represent?  

```r
flights %>% filter(is.na(dep_delay))
```

```
## # A tibble: 8,255 x 19
##     year month   day dep_time sched_dep_time dep_delay arr_time
##    <int> <int> <int>    <int>          <int>     <dbl>    <int>
##  1  2013     1     1       NA           1630        NA       NA
##  2  2013     1     1       NA           1935        NA       NA
##  3  2013     1     1       NA           1500        NA       NA
##  4  2013     1     1       NA            600        NA       NA
##  5  2013     1     2       NA           1540        NA       NA
##  6  2013     1     2       NA           1620        NA       NA
##  7  2013     1     2       NA           1355        NA       NA
##  8  2013     1     2       NA           1420        NA       NA
##  9  2013     1     2       NA           1321        NA       NA
## 10  2013     1     2       NA           1545        NA       NA
## # ... with 8,245 more rows, and 12 more variables: sched_arr_time <int>,
## #   arr_delay <dbl>, carrier <chr>, flight <int>, tailnum <chr>,
## #   origin <chr>, dest <chr>, air_time <dbl>, distance <dbl>, hour <dbl>,
## #   minute <dbl>, time_hour <dttm>
```

seems like these were cancelled.  

#### Problems 5.3.1  
5.3.1 Problems 1-4  

Question 1. How could you use arrange() to sort all missing values to the start? (Hint: use is.na()).  

```r
flights %>% arrange(desc(is.na(dep_delay))) #needs desc()
```

```
## # A tibble: 336,776 x 19
##     year month   day dep_time sched_dep_time dep_delay arr_time
##    <int> <int> <int>    <int>          <int>     <dbl>    <int>
##  1  2013     1     1       NA           1630        NA       NA
##  2  2013     1     1       NA           1935        NA       NA
##  3  2013     1     1       NA           1500        NA       NA
##  4  2013     1     1       NA            600        NA       NA
##  5  2013     1     2       NA           1540        NA       NA
##  6  2013     1     2       NA           1620        NA       NA
##  7  2013     1     2       NA           1355        NA       NA
##  8  2013     1     2       NA           1420        NA       NA
##  9  2013     1     2       NA           1321        NA       NA
## 10  2013     1     2       NA           1545        NA       NA
## # ... with 336,766 more rows, and 12 more variables: sched_arr_time <int>,
## #   arr_delay <dbl>, carrier <chr>, flight <int>, tailnum <chr>,
## #   origin <chr>, dest <chr>, air_time <dbl>, distance <dbl>, hour <dbl>,
## #   minute <dbl>, time_hour <dttm>
```

Question 2. Sort flights to find the most delayed flights. Find the flights that left earliest.  

```r
flights %>% arrange(desc(dep_delay))
```

```
## # A tibble: 336,776 x 19
##     year month   day dep_time sched_dep_time dep_delay arr_time
##    <int> <int> <int>    <int>          <int>     <dbl>    <int>
##  1  2013     1     9      641            900      1301     1242
##  2  2013     6    15     1432           1935      1137     1607
##  3  2013     1    10     1121           1635      1126     1239
##  4  2013     9    20     1139           1845      1014     1457
##  5  2013     7    22      845           1600      1005     1044
##  6  2013     4    10     1100           1900       960     1342
##  7  2013     3    17     2321            810       911      135
##  8  2013     6    27      959           1900       899     1236
##  9  2013     7    22     2257            759       898      121
## 10  2013    12     5      756           1700       896     1058
## # ... with 336,766 more rows, and 12 more variables: sched_arr_time <int>,
## #   arr_delay <dbl>, carrier <chr>, flight <int>, tailnum <chr>,
## #   origin <chr>, dest <chr>, air_time <dbl>, distance <dbl>, hour <dbl>,
## #   minute <dbl>, time_hour <dttm>
```

Question 3. Sort flights to find the fastest (highest speed) flights.  

```r
#there isn't really a speed.... 
flights %>% 
  mutate(speed = distance / air_time) %>%
  arrange(desc(speed))
```

```
## # A tibble: 336,776 x 20
##     year month   day dep_time sched_dep_time dep_delay arr_time
##    <int> <int> <int>    <int>          <int>     <dbl>    <int>
##  1  2013     5    25     1709           1700         9     1923
##  2  2013     7     2     1558           1513        45     1745
##  3  2013     5    13     2040           2025        15     2225
##  4  2013     3    23     1914           1910         4     2045
##  5  2013     1    12     1559           1600        -1     1849
##  6  2013    11    17      650            655        -5     1059
##  7  2013     2    21     2355           2358        -3      412
##  8  2013    11    17      759            800        -1     1212
##  9  2013    11    16     2003           1925        38       17
## 10  2013    11    16     2349           2359       -10      402
## # ... with 336,766 more rows, and 13 more variables: sched_arr_time <int>,
## #   arr_delay <dbl>, carrier <chr>, flight <int>, tailnum <chr>,
## #   origin <chr>, dest <chr>, air_time <dbl>, distance <dbl>, hour <dbl>,
## #   minute <dbl>, time_hour <dttm>, speed <dbl>
```
…
#### Problems 5.4.1  
5.4.1 Problems 1-4   

Question 1. Brainstorm as many ways as possible to select dep_time, dep_delay, arr_time, and arr_delay from flights.  

```r
times_not_sched = c("dep_time", "dep_delay", "arr_time", "arr_delay")
flights %>% select(one_of(times_not_sched))
```

```
## # A tibble: 336,776 x 4
##    dep_time dep_delay arr_time arr_delay
##       <int>     <dbl>    <int>     <dbl>
##  1      517         2      830        11
##  2      533         4      850        20
##  3      542         2      923        33
##  4      544        -1     1004       -18
##  5      554        -6      812       -25
##  6      554        -4      740        12
##  7      555        -5      913        19
##  8      557        -3      709       -14
##  9      557        -3      838        -8
## 10      558        -2      753         8
## # ... with 336,766 more rows
```

```r
flights %>% select(c(4, 6, 7, 9))
```

```
## # A tibble: 336,776 x 4
##    dep_time dep_delay arr_time arr_delay
##       <int>     <dbl>    <int>     <dbl>
##  1      517         2      830        11
##  2      533         4      850        20
##  3      542         2      923        33
##  4      544        -1     1004       -18
##  5      554        -6      812       -25
##  6      554        -4      740        12
##  7      555        -5      913        19
##  8      557        -3      709       -14
##  9      557        -3      838        -8
## 10      558        -2      753         8
## # ... with 336,766 more rows
```
…
Question 4. Does the result of running the following code surprise you? How do the select helpers deal with case by default? How can you change that default?  

```r
select(flights, contains("TIME"))
```

```
## # A tibble: 336,776 x 6
##    dep_time sched_dep_time arr_time sched_arr_time air_time
##       <int>          <int>    <int>          <int>    <dbl>
##  1      517            515      830            819      227
##  2      533            529      850            830      227
##  3      542            540      923            850      160
##  4      544            545     1004           1022      183
##  5      554            600      812            837      116
##  6      554            558      740            728      150
##  7      555            600      913            854      158
##  8      557            600      709            723       53
##  9      557            600      838            846      140
## 10      558            600      753            745      138
## # ... with 336,766 more rows, and 1 more variable: time_hour <dttm>
```
…
#### Problems 5.5.2  
5.5.2 Problems 1-5  

Question 1. Currently dep_time and sched_dep_time are convenient to look at, but hard to compute with because they’re not really continuous numbers. Convert them to a more convenient representation of number of minutes since midnight.  

```r
flights %>%
  mutate(sched_dep_time_min = sched_dep_time %/% 100 *60 + sched_dep_time %% 100) %>%
  select(sched_dep_time, sched_dep_time_min) %>%
  arrange(sched_dep_time_min)
```

```
## # A tibble: 336,776 x 2
##    sched_dep_time sched_dep_time_min
##             <int>              <dbl>
##  1            106                 66
##  2            500                300
##  3            500                300
##  4            500                300
##  5            500                300
##  6            500                300
##  7            500                300
##  8            500                300
##  9            500                300
## 10            500                300
## # ... with 336,766 more rows
```

Question 2. Compare air_time with arr_time - dep_time. What do you expect to see? What do you see? What do you need to do to fix it?  

```r
flights %>%
  mutate(arr_minus_dep = arr_time - dep_time) %>%
  select(air_time, arr_minus_dep)
```

```
## # A tibble: 336,776 x 2
##    air_time arr_minus_dep
##       <dbl>         <int>
##  1      227           313
##  2      227           317
##  3      160           381
##  4      183           460
##  5      116           258
##  6      150           186
##  7      158           358
##  8       53           152
##  9      140           281
## 10      138           195
## # ... with 336,766 more rows
```
arr_time and dep_time need to be recalculated?  

Question 3. Compare dep_time, sched_dep_time, and dep_delay. How would you expect those three numbers to be related?

```r
flights %>%
  select(dep_time, sched_dep_time, dep_delay) %>%
  mutate(dep_time - sched_dep_time)
```

```
## # A tibble: 336,776 x 4
##    dep_time sched_dep_time dep_delay `dep_time - sched_dep_time`
##       <int>          <int>     <dbl>                       <int>
##  1      517            515         2                           2
##  2      533            529         4                           4
##  3      542            540         2                           2
##  4      544            545        -1                          -1
##  5      554            600        -6                         -46
##  6      554            558        -4                          -4
##  7      555            600        -5                         -45
##  8      557            600        -3                         -43
##  9      557            600        -3                         -43
## 10      558            600        -2                         -42
## # ... with 336,766 more rows
```

This has the same time calulation problems as the previous two

Question 4. Find the 10 most delayed flights using a ranking function. How do you want to handle ties? Carefully read the documentation for min_rank().  

```r
flights %>%
  mutate(delay_rank = min_rank(desc(dep_delay))) %>%
  select(dep_delay, delay_rank, everything()) %>%
  arrange(delay_rank)
```

```
## # A tibble: 336,776 x 20
##    dep_delay delay_rank  year month   day dep_time sched_dep_time arr_time
##        <dbl>      <int> <int> <int> <int>    <int>          <int>    <int>
##  1      1301          1  2013     1     9      641            900     1242
##  2      1137          2  2013     6    15     1432           1935     1607
##  3      1126          3  2013     1    10     1121           1635     1239
##  4      1014          4  2013     9    20     1139           1845     1457
##  5      1005          5  2013     7    22      845           1600     1044
##  6       960          6  2013     4    10     1100           1900     1342
##  7       911          7  2013     3    17     2321            810      135
##  8       899          8  2013     6    27      959           1900     1236
##  9       898          9  2013     7    22     2257            759      121
## 10       896         10  2013    12     5      756           1700     1058
## # ... with 336,766 more rows, and 12 more variables: sched_arr_time <int>,
## #   arr_delay <dbl>, carrier <chr>, flight <int>, tailnum <chr>,
## #   origin <chr>, dest <chr>, air_time <dbl>, distance <dbl>, hour <dbl>,
## #   minute <dbl>, time_hour <dttm>
```
…
